
DisplayName "Haunted Manor Dining Room"



EVENT   2
 PAGE   1
  250(bytes(0x04,0x08,0x6f,0x3a,0x0c,0x52,0x50,0x47,0x3a,0x3a,0x53,0x45,0x08,0x3a,0x0a,0x40,0x6e,0x61,0x6d,0x65,0x49,0x22,0x09,0x4d,0x6f,0x76,0x65,0x06,0x3a,0x06,0x45,0x54,0x3a,0x0b,0x40,0x70,0x69,0x74,0x63,0x68,0x69,0x69,0x3a,0x0c,0x40,0x76,0x6f,0x6c,0x75,0x6d,0x65,0x69,0x55))
  TeleportPlayer(0,346,30,12,0,0)
  0()



EVENT   4
 PAGE   1
  250(bytes(0x04,0x08,0x6f,0x3a,0x0c,0x52,0x50,0x47,0x3a,0x3a,0x53,0x45,0x08,0x3a,0x0a,0x40,0x6e,0x61,0x6d,0x65,0x49,0x22,0x09,0x4d,0x6f,0x76,0x65,0x06,0x3a,0x06,0x45,0x54,0x3a,0x0b,0x40,0x70,0x69,0x74,0x63,0x68,0x69,0x69,0x3a,0x0c,0x40,0x76,0x6f,0x6c,0x75,0x6d,0x65,0x69,0x55))
  TeleportPlayer(0,346,30,12,0,0)
  0()



EVENT   5
 PAGE   1
  250(bytes(0x04,0x08,0x6f,0x3a,0x0c,0x52,0x50,0x47,0x3a,0x3a,0x53,0x45,0x08,0x3a,0x0a,0x40,0x6e,0x61,0x6d,0x65,0x49,0x22,0x09,0x4d,0x6f,0x76,0x65,0x06,0x3a,0x06,0x45,0x54,0x3a,0x0b,0x40,0x70,0x69,0x74,0x63,0x68,0x69,0x69,0x3a,0x0c,0x40,0x76,0x6f,0x6c,0x75,0x6d,0x65,0x69,0x55))
  TeleportPlayer(0,346,30,12,0,0)
  0()



EVENT   6
 PAGE   1
  250(bytes(0x04,0x08,0x6f,0x3a,0x0c,0x52,0x50,0x47,0x3a,0x3a,0x53,0x45,0x08,0x3a,0x0a,0x40,0x6e,0x61,0x6d,0x65,0x49,0x22,0x0a,0x43,0x68,0x65,0x73,0x74,0x06,0x3a,0x06,0x45,0x54,0x3a,0x0b,0x40,0x70,0x69,0x74,0x63,0x68,0x69,0x69,0x3a,0x0c,0x40,0x76,0x6f,0x6c,0x75,0x6d,0x65,0x69,0x55))
  205(0,bytes(0x04,0x08,0x6f,0x3a,0x13,0x52,0x50,0x47,0x3a,0x3a,0x4d,0x6f,0x76,0x65,0x52,0x6f,0x75,0x74,0x65,0x09,0x3a,0x0c,0x40,0x72,0x65,0x70,0x65,0x61,0x74,0x46,0x3a,0x0f,0x40,0x73,0x6b,0x69,0x70,0x70,0x61,0x62,0x6c,0x65,0x46,0x3a,0x0a,0x40,0x77,0x61,0x69,0x74,0x54,0x3a,0x0a,0x40,0x6c,0x69,0x73,0x74,0x5b,0x0b,0x6f,0x3a,0x15,0x52,0x50,0x47,0x3a,0x3a,0x4d,0x6f,0x76,0x65,0x43,0x6f,0x6d,0x6d,0x61,0x6e,0x64,0x07,0x3a,0x0a,0x40,0x63,0x6f,0x64,0x65,0x69,0x29,0x3a,0x10,0x40,0x70,0x61,0x72,0x61,0x6d,0x65,0x74,0x65,0x72,0x73,0x5b,0x00,0x6f,0x3b,0x0a,0x07,0x3b,0x0b,0x69,0x16,0x3b,0x0c,0x5b,0x00,0x6f,0x3b,0x0a,0x07,0x3b,0x0b,0x69,0x14,0x3b,0x0c,0x5b,0x06,0x69,0x08,0x6f,0x3b,0x0a,0x07,0x3b,0x0b,0x69,0x17,0x3b,0x0c,0x5b,0x00,0x6f,0x3b,0x0a,0x07,0x3b,0x0b,0x69,0x14,0x3b,0x0c,0x5b,0x06,0x69,0x08,0x6f,0x3b,0x0a,0x07,0x3b,0x0b,0x69,0x00,0x3b,0x0c,0x5b,0x00))
  ChangeSelfSwitch("A",0)
  ChangeInventory_Item(346,0,0,1)
  0()
 PAGE   2
  // condition: self-switch A is ON
  0()



EVENT   7
 PAGE   1
  ShowSpeechBalloon(-1,8,true)
  205(12,bytes(0x04,0x08,0x6f,0x3a,0x13,0x52,0x50,0x47,0x3a,0x3a,0x4d,0x6f,0x76,0x65,0x52,0x6f,0x75,0x74,0x65,0x09,0x3a,0x0c,0x40,0x72,0x65,0x70,0x65,0x61,0x74,0x46,0x3a,0x0f,0x40,0x73,0x6b,0x69,0x70,0x70,0x61,0x62,0x6c,0x65,0x46,0x3a,0x0a,0x40,0x77,0x61,0x69,0x74,0x46,0x3a,0x0a,0x40,0x6c,0x69,0x73,0x74,0x5b,0x07,0x6f,0x3a,0x15,0x52,0x50,0x47,0x3a,0x3a,0x4d,0x6f,0x76,0x65,0x43,0x6f,0x6d,0x6d,0x61,0x6e,0x64,0x07,0x3a,0x0a,0x40,0x63,0x6f,0x64,0x65,0x69,0x15,0x3a,0x10,0x40,0x70,0x61,0x72,0x61,0x6d,0x65,0x74,0x65,0x72,0x73,0x5b,0x00,0x6f,0x3b,0x0a,0x07,0x3b,0x0b,0x69,0x00,0x3b,0x0c,0x5b,0x00))
  205(13,bytes(0x04,0x08,0x6f,0x3a,0x13,0x52,0x50,0x47,0x3a,0x3a,0x4d,0x6f,0x76,0x65,0x52,0x6f,0x75,0x74,0x65,0x09,0x3a,0x0c,0x40,0x72,0x65,0x70,0x65,0x61,0x74,0x46,0x3a,0x0f,0x40,0x73,0x6b,0x69,0x70,0x70,0x61,0x62,0x6c,0x65,0x46,0x3a,0x0a,0x40,0x77,0x61,0x69,0x74,0x46,0x3a,0x0a,0x40,0x6c,0x69,0x73,0x74,0x5b,0x07,0x6f,0x3a,0x15,0x52,0x50,0x47,0x3a,0x3a,0x4d,0x6f,0x76,0x65,0x43,0x6f,0x6d,0x6d,0x61,0x6e,0x64,0x07,0x3a,0x0a,0x40,0x63,0x6f,0x64,0x65,0x69,0x15,0x3a,0x10,0x40,0x70,0x61,0x72,0x61,0x6d,0x65,0x74,0x65,0x72,0x73,0x5b,0x00,0x6f,0x3b,0x0a,0x07,0x3b,0x0b,0x69,0x00,0x3b,0x0c,0x5b,0x00))
  205(14,bytes(0x04,0x08,0x6f,0x3a,0x13,0x52,0x50,0x47,0x3a,0x3a,0x4d,0x6f,0x76,0x65,0x52,0x6f,0x75,0x74,0x65,0x09,0x3a,0x0c,0x40,0x72,0x65,0x70,0x65,0x61,0x74,0x46,0x3a,0x0f,0x40,0x73,0x6b,0x69,0x70,0x70,0x61,0x62,0x6c,0x65,0x46,0x3a,0x0a,0x40,0x77,0x61,0x69,0x74,0x46,0x3a,0x0a,0x40,0x6c,0x69,0x73,0x74,0x5b,0x07,0x6f,0x3a,0x15,0x52,0x50,0x47,0x3a,0x3a,0x4d,0x6f,0x76,0x65,0x43,0x6f,0x6d,0x6d,0x61,0x6e,0x64,0x07,0x3a,0x0a,0x40,0x63,0x6f,0x64,0x65,0x69,0x15,0x3a,0x10,0x40,0x70,0x61,0x72,0x61,0x6d,0x65,0x74,0x65,0x72,0x73,0x5b,0x00,0x6f,0x3b,0x0a,0x07,0x3b,0x0b,0x69,0x00,0x3b,0x0c,0x5b,0x00))
  205(15,bytes(0x04,0x08,0x6f,0x3a,0x13,0x52,0x50,0x47,0x3a,0x3a,0x4d,0x6f,0x76,0x65,0x52,0x6f,0x75,0x74,0x65,0x09,0x3a,0x0c,0x40,0x72,0x65,0x70,0x65,0x61,0x74,0x46,0x3a,0x0f,0x40,0x73,0x6b,0x69,0x70,0x70,0x61,0x62,0x6c,0x65,0x46,0x3a,0x0a,0x40,0x77,0x61,0x69,0x74,0x54,0x3a,0x0a,0x40,0x6c,0x69,0x73,0x74,0x5b,0x07,0x6f,0x3a,0x15,0x52,0x50,0x47,0x3a,0x3a,0x4d,0x6f,0x76,0x65,0x43,0x6f,0x6d,0x6d,0x61,0x6e,0x64,0x07,0x3a,0x0a,0x40,0x63,0x6f,0x64,0x65,0x69,0x15,0x3a,0x10,0x40,0x70,0x61,0x72,0x61,0x6d,0x65,0x74,0x65,0x72,0x73,0x5b,0x00,0x6f,0x3b,0x0a,0x07,0x3b,0x0b,0x69,0x00,0x3b,0x0c,0x5b,0x00))
  ShowSpeechBalloon(-1,1,false)
  ShowSpeechBalloon(8,1,false)
  ShowSpeechBalloon(9,1,false)
  ShowSpeechBalloon(10,1,false)
  ShowSpeechBalloon(11,1,false)
  ShowSpeechBalloon(12,1,false)
  ShowSpeechBalloon(13,1,false)
  ShowSpeechBalloon(14,1,false)
  ShowSpeechBalloon(15,1,true)
  250(bytes(0x04,0x08,0x6f,0x3a,0x0c,0x52,0x50,0x47,0x3a,0x3a,0x53,0x45,0x08,0x3a,0x0a,0x40,0x6e,0x61,0x6d,0x65,0x49,0x22,0x0b,0x53,0x63,0x72,0x65,0x61,0x6d,0x06,0x3a,0x06,0x45,0x54,0x3a,0x0b,0x40,0x70,0x69,0x74,0x63,0x68,0x69,0x69,0x3a,0x0c,0x40,0x76,0x6f,0x6c,0x75,0x6d,0x65,0x69,0x55))
  ShowMessageFace("zonbe_fc3",3,0,0,1)
  ShowMessage("\\n<Zombie Girl>YOOOUU SAAAAAAW IIIIITTT?!")
  221()
  If(0,6,0)
   ShowMessageFace("sonia_fc3",2,0,2,2)
   ShowMessage("\\n<Sonya>Waaah! What's this?!")
   0()
  EndIf()
  If(0,4,0)
   ShowMessageFace("alice_fc5",6,0,2,3)
   ShowMessage("\\n<Alice>T-the light! Luka, hurry and make some light!")
   0()
  EndIf()
  If(0,5,0)
   ShowMessageFace("iriasu_fc4",5,0,2,4)
   ShowMessage("\\n<Ilias>The l-lights are... Luka, hurry and make some light!")
   0()
  EndIf()
  ShowMessageFace("ruka_fc1",0,0,2,5)
  ShowMessage("\\n<Luka>G-give me a second!")
  If(0,6,0)
   ShowMessageFace("sonia_fc2",0,0,2,6)
   ShowMessage("\\n<Sonya>Hey, Luka! Where are you touching!?")
   0()
  EndIf()
  If(0,4,0)
   ShowMessageFace("alice_fc5",6,0,2,7)
   ShowMessage("\\n<Alice>Hey Luka, where are you taking me? Don't pull me, hey!")
   0()
  EndIf()
  If(0,5,0)
   ShowMessageFace("iriasu_fc4",5,0,2,8)
   ShowMessage("\\n<Ilias>Hey Luka, where are you taking me? Please stop pulling on my arm!")
   0()
  EndIf()
  ShowMessageFace("ruka_fc1",0,0,2,9)
  ShowMessage("\\n<Luka>U-um, I'm not doing anything thing.")
  216(1)
  ChangeSwitch(2081,2081,1)
  ChangeSwitch(2082,2082,0)
  222()
  If(0,4,0)
   ShowMessageFace("alice_fc5",6,0,0,10)
   ShowMessage("\\n<Alice>Waah!")
   0()
  EndIf()
  If(0,5,0)
   ShowMessageFace("iriasu_fc4",5,0,0,11)
   ShowMessage("\\n<Ilias>Hyah!")
   0()
  EndIf()
  If(0,6,0)
   ShowMessageFace("sonia_fc3",2,0,0,12)
   ShowMessage("\\n<Sonya>Hey, what's this?!")
   0()
  EndIf()
  Battle(0,195,false,false)
  ChangeSwitch(2082,2082,1)
  ChangeSwitch(2083,2083,0)
  If(0,4,0)
   ShowMessageFace("alice_fc5",6,0,0,13)
   ShowMessage("\\n<Alice>Wwawawaaa...")
   0()
  EndIf()
  If(0,5,0)
   ShowMessageFace("iriasu_fc4",5,0,0,14)
   ShowMessage("\\n<Ilias>Wwawawawaa...")
   0()
  EndIf()
  If(0,6,0)
   ShowMessageFace("sonia_fc3",2,0,0,15)
   ShowMessage("\\n<Sonya>WHAT IS THIS?!")
   0()
  EndIf()
  Battle(0,193,false,false)
  ChangeSwitch(2083,2083,1)
  ChangeSwitch(2084,2084,0)
  If(0,4,0)
   ShowMessageFace("alice_fc5",4,0,0,16)
   ShowMessage("\\n<Alice>GET AWAY!")
   0()
  EndIf()
  If(0,5,0)
   ShowMessageFace("iriasu_fc4",4,0,0,17)
   ShowMessage("\\n<Ilias>HYAA!")
   0()
  EndIf()
  If(0,6,0)
   ShowMessageFace("sonia_fc3",2,0,0,18)
   ShowMessage("\\n<Sonya>NOOOOO!")
   0()
  EndIf()
  Battle(0,192,false,false)
  ChangeSwitch(2084,2084,1)
  ChangeSwitch(2079,2079,0)
  216(0)
  ShowMessageFace("ruka_fc1",0,0,2,19)
  ShowMessage("\\n<Luka>We finally stopped them.")
  If(0,6,0)
   ShowMessageFace("sonia_fc4",0,0,2,20)
   ShowMessage("\\n<Sonya>What's even going on anymore?")
   0()
  EndIf()
  If(0,4,0)
   ShowMessageFace("alice_fc5",4,0,2,21)
   ShowMessage("\\n<Alice> ＿人人 人人 人人 人人 人人 人人＿")
   ShowMessage(" ＞ WASN'T SCARED ONE BIT!　＜")
   ShowMessage(" ￣Y^Y^Y^Y^Y^Y^Y^Y^Y^Y^Y^Y^Y^￣")
   0()
  EndIf()
  If(0,5,0)
   ShowMessageFace("iriasu_fc4",4,0,2,22)
   ShowMessage("\\n<Ilias>I-I was not sacred, not at all.")
   0()
  EndIf()
  ShowMessageFace("ruka_fc1",0,0,2,23)
  ShowMessage("\\n<Luka>I guess we are all more or less okay then. Let's keep going then.")
  0()
 PAGE   2
  // condition: switch 2079 is ON
  0()



EVENT   8
 PAGE   1
  // condition: switch 2081 is ON
  0()



EVENT   9
 PAGE   1
  // condition: switch 2081 is ON
  0()



EVENT   10
 PAGE   1
  // condition: switch 2081 is ON
  0()



EVENT   11
 PAGE   1
  // condition: switch 2081 is ON
  0()



EVENT   12
 PAGE   1
  // condition: switch 2081 is ON
  0()



EVENT   13
 PAGE   1
  // condition: switch 2081 is ON
  0()



EVENT   14
 PAGE   1
  // condition: switch 2081 is ON
  0()



EVENT   15
 PAGE   1
  // condition: switch 2081 is ON
  0()



EVENT   16
 PAGE   1
  // condition: switch 2082 is ON
  0()



EVENT   17
 PAGE   1
  // condition: switch 2082 is ON
  0()



EVENT   18
 PAGE   1
  // condition: switch 2082 is ON
  0()



EVENT   19
 PAGE   1
  // condition: switch 2082 is ON
  0()



EVENT   20
 PAGE   1
  // condition: switch 2082 is ON
  // condition: switch 4 is ON
  0()
 PAGE   2
  // condition: switch 2082 is ON
  // condition: switch 5 is ON
  0()



EVENT   21
 PAGE   1
  // condition: switch 2083 is ON
  0()



EVENT   22
 PAGE   1
  // condition: switch 2083 is ON
  0()



EVENT   23
 PAGE   1
  // condition: switch 2083 is ON
  // condition: switch 4 is ON
  0()
 PAGE   2
  // condition: switch 2083 is ON
  // condition: switch 5 is ON
  0()



EVENT   24
 PAGE   1
  // condition: switch 2084 is ON
  // condition: switch 4 is ON
  0()
 PAGE   2
  // condition: switch 2084 is ON
  // condition: switch 5 is ON
  0()



EVENT   25
 PAGE   1
  // condition: switch 2084 is ON
  0()



EVENT   26
 PAGE   1
  // condition: switch 2084 is ON
  0()



EVENT   27
 PAGE   1
  // condition: switch 2084 is ON
  0()



EVENT   28
 PAGE   1
  // condition: switch 2084 is ON
  0()



EVENT   31
 PAGE   1
  // condition: switch 2082 is ON
  0()



EVENT   33
 PAGE   1
  // condition: switch 2084 is ON
  // condition: switch 6 is ON
  0()



EVENT   34
 PAGE   1
  // condition: switch 2084 is ON
  0()



EVENT   35
 PAGE   1
  // condition: switch 2084 is ON
  0()



EVENT   29
 PAGE   1
  // condition: switch 2082 is ON
  // condition: switch 6 is ON
  0()



EVENT   30
 PAGE   1
  // condition: switch 2082 is ON
  0()



EVENT   32
 PAGE   1
  // condition: switch 2082 is ON
  0()



EVENT   36
 PAGE   1
  // condition: switch 2082 is ON
  0()



EVENT   39
 PAGE   1
  // condition: switch 2083 is ON
  // condition: switch 6 is ON
  0()



EVENT   37
 PAGE   1
  // condition: switch 2083 is ON
  0()



EVENT   38
 PAGE   1
  // condition: switch 2083 is ON
  0()



EVENT   40
 PAGE   1
  // condition: switch 2083 is ON
  0()



EVENT   41
 PAGE   1
  // condition: switch 2083 is ON
  0()