﻿
DisplayName "Safaru Ruins Area 4"



EVENT   1
 PAGE   1
  250(bytes(0x04,0x08,0x6f,0x3a,0x0c,0x52,0x50,0x47,0x3a,0x3a,0x53,0x45,0x08,0x3a,0x0a,0x40,0x6e,0x61,0x6d,0x65,0x49,0x22,0x09,0x4d,0x6f,0x76,0x65,0x06,0x3a,0x06,0x45,0x54,0x3a,0x0b,0x40,0x70,0x69,0x74,0x63,0x68,0x69,0x69,0x3a,0x0c,0x40,0x76,0x6f,0x6c,0x75,0x6d,0x65,0x69,0x55))
  TeleportPlayer(0,393,48,7,0,0)
  0()



EVENT   2
 PAGE   1
  250(bytes(0x04,0x08,0x6f,0x3a,0x0c,0x52,0x50,0x47,0x3a,0x3a,0x53,0x45,0x08,0x3a,0x0a,0x40,0x6e,0x61,0x6d,0x65,0x49,0x22,0x09,0x4d,0x6f,0x76,0x65,0x06,0x3a,0x06,0x45,0x54,0x3a,0x0b,0x40,0x70,0x69,0x74,0x63,0x68,0x69,0x69,0x3a,0x0c,0x40,0x76,0x6f,0x6c,0x75,0x6d,0x65,0x69,0x55))
  TeleportPlayer(0,393,48,7,0,0)
  0()



EVENT   3
 PAGE   1
  250(bytes(0x04,0x08,0x6f,0x3a,0x0c,0x52,0x50,0x47,0x3a,0x3a,0x53,0x45,0x08,0x3a,0x0a,0x40,0x6e,0x61,0x6d,0x65,0x49,0x22,0x09,0x4d,0x6f,0x76,0x65,0x06,0x3a,0x06,0x45,0x54,0x3a,0x0b,0x40,0x70,0x69,0x74,0x63,0x68,0x69,0x69,0x3a,0x0c,0x40,0x76,0x6f,0x6c,0x75,0x6d,0x65,0x69,0x55))
  TeleportPlayer(0,393,48,7,0,0)
  0()



EVENT   4
 PAGE   1
  250(bytes(0x04,0x08,0x6f,0x3a,0x0c,0x52,0x50,0x47,0x3a,0x3a,0x53,0x45,0x08,0x3a,0x0a,0x40,0x6e,0x61,0x6d,0x65,0x49,0x22,0x09,0x4d,0x6f,0x76,0x65,0x06,0x3a,0x06,0x45,0x54,0x3a,0x0b,0x40,0x70,0x69,0x74,0x63,0x68,0x69,0x69,0x3a,0x0c,0x40,0x76,0x6f,0x6c,0x75,0x6d,0x65,0x69,0x55))
  TeleportPlayer(0,393,48,7,0,0)
  0()



EVENT   5
 PAGE   1
  250(bytes(0x04,0x08,0x6f,0x3a,0x0c,0x52,0x50,0x47,0x3a,0x3a,0x53,0x45,0x08,0x3a,0x0a,0x40,0x6e,0x61,0x6d,0x65,0x49,0x22,0x0a,0x43,0x68,0x65,0x73,0x74,0x06,0x3a,0x06,0x45,0x54,0x3a,0x0b,0x40,0x70,0x69,0x74,0x63,0x68,0x69,0x69,0x3a,0x0c,0x40,0x76,0x6f,0x6c,0x75,0x6d,0x65,0x69,0x55))
  205(0,bytes(0x04,0x08,0x6f,0x3a,0x13,0x52,0x50,0x47,0x3a,0x3a,0x4d,0x6f,0x76,0x65,0x52,0x6f,0x75,0x74,0x65,0x09,0x3a,0x0c,0x40,0x72,0x65,0x70,0x65,0x61,0x74,0x46,0x3a,0x0f,0x40,0x73,0x6b,0x69,0x70,0x70,0x61,0x62,0x6c,0x65,0x46,0x3a,0x0a,0x40,0x77,0x61,0x69,0x74,0x54,0x3a,0x0a,0x40,0x6c,0x69,0x73,0x74,0x5b,0x0b,0x6f,0x3a,0x15,0x52,0x50,0x47,0x3a,0x3a,0x4d,0x6f,0x76,0x65,0x43,0x6f,0x6d,0x6d,0x61,0x6e,0x64,0x07,0x3a,0x0a,0x40,0x63,0x6f,0x64,0x65,0x69,0x29,0x3a,0x10,0x40,0x70,0x61,0x72,0x61,0x6d,0x65,0x74,0x65,0x72,0x73,0x5b,0x00,0x6f,0x3b,0x0a,0x07,0x3b,0x0b,0x69,0x16,0x3b,0x0c,0x5b,0x00,0x6f,0x3b,0x0a,0x07,0x3b,0x0b,0x69,0x14,0x3b,0x0c,0x5b,0x06,0x69,0x08,0x6f,0x3b,0x0a,0x07,0x3b,0x0b,0x69,0x17,0x3b,0x0c,0x5b,0x00,0x6f,0x3b,0x0a,0x07,0x3b,0x0b,0x69,0x14,0x3b,0x0c,0x5b,0x06,0x69,0x08,0x6f,0x3b,0x0a,0x07,0x3b,0x0b,0x69,0x00,0x3b,0x0c,0x5b,0x00))
  ChangeSelfSwitch("A",0)
  ChangeInventoryWeapon(874,0,0,1)
  0()
 PAGE   2
  // condition: self-switch A is ON
  0()



EVENT   6
 PAGE   1
  250(bytes(0x04,0x08,0x6f,0x3a,0x0c,0x52,0x50,0x47,0x3a,0x3a,0x53,0x45,0x08,0x3a,0x0a,0x40,0x6e,0x61,0x6d,0x65,0x49,0x22,0x0a,0x43,0x68,0x65,0x73,0x74,0x06,0x3a,0x06,0x45,0x54,0x3a,0x0b,0x40,0x70,0x69,0x74,0x63,0x68,0x69,0x69,0x3a,0x0c,0x40,0x76,0x6f,0x6c,0x75,0x6d,0x65,0x69,0x55))
  205(0,bytes(0x04,0x08,0x6f,0x3a,0x13,0x52,0x50,0x47,0x3a,0x3a,0x4d,0x6f,0x76,0x65,0x52,0x6f,0x75,0x74,0x65,0x09,0x3a,0x0c,0x40,0x72,0x65,0x70,0x65,0x61,0x74,0x46,0x3a,0x0f,0x40,0x73,0x6b,0x69,0x70,0x70,0x61,0x62,0x6c,0x65,0x46,0x3a,0x0a,0x40,0x77,0x61,0x69,0x74,0x54,0x3a,0x0a,0x40,0x6c,0x69,0x73,0x74,0x5b,0x0b,0x6f,0x3a,0x15,0x52,0x50,0x47,0x3a,0x3a,0x4d,0x6f,0x76,0x65,0x43,0x6f,0x6d,0x6d,0x61,0x6e,0x64,0x07,0x3a,0x0a,0x40,0x63,0x6f,0x64,0x65,0x69,0x29,0x3a,0x10,0x40,0x70,0x61,0x72,0x61,0x6d,0x65,0x74,0x65,0x72,0x73,0x5b,0x00,0x6f,0x3b,0x0a,0x07,0x3b,0x0b,0x69,0x16,0x3b,0x0c,0x5b,0x00,0x6f,0x3b,0x0a,0x07,0x3b,0x0b,0x69,0x14,0x3b,0x0c,0x5b,0x06,0x69,0x08,0x6f,0x3b,0x0a,0x07,0x3b,0x0b,0x69,0x17,0x3b,0x0c,0x5b,0x00,0x6f,0x3b,0x0a,0x07,0x3b,0x0b,0x69,0x14,0x3b,0x0c,0x5b,0x06,0x69,0x08,0x6f,0x3b,0x0a,0x07,0x3b,0x0b,0x69,0x00,0x3b,0x0c,0x5b,0x00))
  ChangeSelfSwitch("A",0)
  ChangeInventory_Item(72,0,0,1)
  0()
 PAGE   2
  // condition: self-switch A is ON
  0()



EVENT   8
 PAGE   1
  // condition: variable 1001 >= 17
  PictureDisplay(5,"80_gnome_st01",0,0,0,0,100,100,0,0)
  PictureMove(5,null,0,0,0,0,100,100,255,0,30,true)
  ShowMessageFace("gnome_fc1",0,0,2,1)
  ShowMessage("\\n<Gnome>……………………")
  If(0,6,0)
   ShowMessageFace("sonia_fc1",0,0,2,2)
   ShowMessage("\\n<Sonya>えっと……あなたが、ノームちゃん？")
   0()
  Else()
   ShowMessageFace("ruka_fc1",0,0,2,3)
   ShowMessage("\\n<Luka>君が、ノームなんだよね？")
   0()
  EndIf()
  ShowMessageFace("gnome_fc1",0,0,2,4)
  ShowMessage("\\n<Gnome>……………………")
  ShowMessageFace("",0,0,2,5)
  ShowMessage("ノームはこくこくと頷いている……")
  If(4,79,0)
   ShowMessageFace("nuruko_fc1",0,0,2,6)
   ShowMessage("\\n<Nuruko>Kyuu! Kyuu!")
   0()
  EndIf()
  ShowMessageFace("ruka_fc1",0,0,2,7)
  ShowMessage("\\n<Luka>あの……君の力を貸してほしいんだけど……")
  ShowMessageFace("sylph_fc1",0,0,2,8)
  ShowMessage("\\n<Sylph>わーい、ノームちゃんだー！")
  ShowMessageFace("gnome_fc1",0,0,2,9)
  ShowMessage("\\n<Gnome>……………………")
  ShowMessageFace("sylph_fc1",3,0,2,10)
  ShowMessage("\\n<Sylph>ねぇ、ノームちゃん。 この人間に取り憑いて、いっしょにあそぼうよー♪")
  ShowMessageFace("gnome_fc1",0,0,2,11)
  ShowMessage("\\n<Gnome>……………………")
  ShowMessageFace("sylph_fc1",1,0,2,12)
  ShowMessage("\\n<Sylph>……そうなの。 そうだね、ノームちゃんはルカと会ったばっかりだもんね。")
  If(0,6,0)
   ShowMessageFace("sonia_fc2",2,0,2,13)
   ShowMessage("\\n<Sonya>……ちゃんと、会話通じてるの？")
   0()
  Else()
   ShowMessageFace("ruka_fc1",0,0,2,14)
   ShowMessage("\\n<Luka>あの……どういうことなんだ？")
   0()
  EndIf()
  ShowMessageFace("sylph_fc1",0,0,2,15)
  ShowMessage("\\n<Sylph>力を貸してほしかったら、その前に力を示せだって。 つまり、ノームちゃんと戦って勝たなきゃいけないってこと。")
  If(0,4,0)
   ShowMessageFace("alice_fc5",2,0,2,16)
   ShowMessage("\\n<Alice>まあ、そう来るとは思っていた…… では行くぞ！")
   0()
  EndIf()
  If(0,5,0)
   ShowMessageFace("iriasu_fc4",1,0,2,17)
   ShowMessage("\\n<Ilias>なんと、それは仕方ないですね。 それでは、サンドバッグといきましょうか。")
   0()
  EndIf()
  ShowMessageFace("ruka_fc1",0,0,2,18)
  ShowMessage("\\n<Luka>よし、負けないぞ！")
  If(0,6,0)
   ShowMessageFace("sonia_fc1",3,0,2,19)
   ShowMessage("\\n<Sonya>あたしも手伝うからねー！ そいや、フルパワー！")
   0()
  EndIf()
  If(4,79,0)
   ShowMessageFace("nuruko_fc1",0,0,2,20)
   ShowMessage("\\n<Nuruko>きゅーっ！　きゅーっ！")
   0()
  EndIf()
  If(4,41,0)
   ShowMessageFace("stein_fc2",1,0,2,21)
   ShowMessage("\\n<Promestein>解剖したら、中から土が出てくるんでしょうか……")
   0()
  EndIf()
  If(4,118,0)
   ShowMessageFace("meia_fc1",1,0,2,22)
   ShowMessage("\\n<Meia>試験という事なら、容赦はしませんよ！")
   0()
  EndIf()
  If(4,531,0)
   ShowMessageFace("saniria_fc2",0,0,2,23)
   ShowMessage("\\n<King of San Ilia>神を試すなかれ……そう聖書に書かれているのをご存じか？")
   0()
  EndIf()
  If(4,129,0)
   ShowMessageFace("brunhild_fc2",0,0,2,24)
   ShowMessage("\\n<Hild>オマエ、世界の敵……？ じゃあ、ヒルデがやっつける……")
   0()
  EndIf()
  If(4,134,0)
   ShowMessageFace("chrom_fc2",0,0,2,25)
   ShowMessage("\\n<Chrome>クロムちゃんのゾンビさばき、見るのじゃ！")
   0()
  EndIf()
  If(4,529,0)
   ShowMessageFace("sara_fc1",1,0,2,26)
   ShowMessage("\\n<Sara>せっかくの機会だし、私も腕試しさせてもらうわ！")
   0()
  EndIf()
  If(4,155,0)
   ShowMessageFace("saki_fc1",3,0,2,27)
   ShowMessage("\\n<Saki>それじゃあ、サキちゃんライブの始まりだよっ☆")
   0()
  EndIf()
  ShowMessageFace("gnome_fc1",0,0,2,28)
  ShowMessage("\\n<Gnome>…………！？")
  PictureClear(5)
  SetBattleBGM(bytes(0x04,0x08,0x6f,0x3a,0x0d,0x52,0x50,0x47,0x3a,0x3a,0x42,0x47,0x4d,0x08,0x3a,0x0a,0x40,0x6e,0x61,0x6d,0x65,0x49,0x22,0x13,0x62,0x6f,0x73,0x73,0x5f,0x79,0x6f,0x6e,0x73,0x65,0x69,0x72,0x65,0x69,0x06,0x3a,0x06,0x45,0x54,0x3a,0x0c,0x40,0x76,0x6f,0x6c,0x75,0x6d,0x65,0x69,0x69,0x3a,0x0b,0x40,0x70,0x69,0x74,0x63,0x68,0x69,0x69))
  ChangeSwitch(22,22,0)
  Battle(0,299,false,false)
  ChangeSwitch(22,22,1)
  SetBattleBGM(bytes(0x04,0x08,0x6f,0x3a,0x0d,0x52,0x50,0x47,0x3a,0x3a,0x42,0x47,0x4d,0x08,0x3a,0x0a,0x40,0x6e,0x61,0x6d,0x65,0x49,0x22,0x0b,0x62,0x61,0x74,0x74,0x6c,0x65,0x06,0x3a,0x06,0x45,0x54,0x3a,0x0c,0x40,0x76,0x6f,0x6c,0x75,0x6d,0x65,0x69,0x69,0x3a,0x0b,0x40,0x70,0x69,0x74,0x63,0x68,0x69,0x69))
  PictureDisplay(5,"80_gnome_st02",0,0,0,0,100,100,0,0)
  PictureMove(5,null,0,0,0,0,100,100,255,0,30,true)
  ShowMessageFace("gnome_fc1",0,0,2,29)
  ShowMessage("\\n<Gnome>……………………")
  ShowMessageFace("sylph_fc1",3,0,2,30)
  ShowMessage("\\n<Sylph>納得したから、もう殴るのはやめて……だって。")
  ShowMessageFace("ruka_fc1",0,0,2,31)
  ShowMessage("\\n<Luka>やり過ぎちゃった……")
  PictureDisplay(5,"80_gnome_st01",0,0,0,0,100,100,255,0)
  ShowMessageFace("gnome_fc1",0,0,2,32)
  ShowMessage("\\n<Gnome>……………………")
  ShowMessageFace("",0,0,2,33)
  ShowMessage("ノームはじっとルカの顔を見上げ、右手をすっと差し出した……")
  ShowMessageFace("ruka_fc1",0,0,2,34)
  ShowMessage("\\n<Luka>え……？")
  ShowMessageFace("gnome_fc1",0,0,2,35)
  ShowMessage("\\n<Gnome>……………………")
  ShowMessageFace("",0,0,2,36)
  ShowMessage("ノームはルカの顔を見たまま、右手をわきわきと動かした！ 握手をしてほしいのだろうか……")
  ShowMessageFace("ruka_fc1",0,0,2,37)
  ShowMessage("\\n<Luka>はい、あくしゅ。")
  ShowMessageFace("gnome_fc1",0,0,2,38)
  ShowMessage("\\n<Gnome>……………………")
  250(bytes(0x04,0x08,0x6f,0x3a,0x0c,0x52,0x50,0x47,0x3a,0x3a,0x53,0x45,0x08,0x3a,0x0a,0x40,0x6e,0x61,0x6d,0x65,0x49,0x22,0x0d,0x6d,0x6f,0x6e,0x5f,0x77,0x61,0x72,0x6d,0x06,0x3a,0x06,0x45,0x54,0x3a,0x0b,0x40,0x70,0x69,0x74,0x63,0x68,0x69,0x69,0x3a,0x0c,0x40,0x76,0x6f,0x6c,0x75,0x6d,0x65,0x69,0x69))
  PictureDisplay(6,"sys_white",0,0,0,0,100,100,0,0)
  PictureMove(6,null,0,0,0,0,100,100,255,0,30,true)
  PictureMove(6,null,0,0,0,0,100,100,0,0,30,true)
  PictureClear(6)
  ShowMessageFace("",0,0,2,39)
  ShowMessage("ルカの体に、力が流れ込んでくる！ まるで、大地の息吹が根付いたかのようだ！")
  318(0,1,0,3107)
  250(bytes(0x04,0x08,0x6f,0x3a,0x0c,0x52,0x50,0x47,0x3a,0x3a,0x53,0x45,0x08,0x3a,0x0a,0x40,0x6e,0x61,0x6d,0x65,0x49,0x22,0x0a,0x49,0x74,0x65,0x6d,0x31,0x06,0x3a,0x06,0x45,0x54,0x3a,0x0b,0x40,0x70,0x69,0x74,0x63,0x68,0x69,0x69,0x3a,0x0c,0x40,0x76,0x6f,0x6c,0x75,0x6d,0x65,0x69,0x55))
  ShowMessageFace("",0,0,2,40)
  ShowMessage("ルカは\\I[300]\\C[1]ノーム\\C[0]を修得した！")
  ShowMessageFace("gnome_fc1",0,0,2,41)
  ShowMessage("\\n<Gnome>……………………")
  ShowMessageFace("sylph_fc1",0,0,2,42)
  ShowMessage("\\n<Sylph>ノームちゃんも、一緒に遊びたいんだって。 ねぇ、仲間に入れてあげようよ！")
  ShowMessageFace("ruka_fc1",0,0,2,43)
  ShowMessage("\\n<Luka>うん、よろしく！")
  ShowMessageFace("gnome_fc1",0,0,2,44)
  ShowMessage("\\n<Gnome>……………………")
  PictureClear(5)
  205(0,bytes(0x04,0x08,0x6f,0x3a,0x13,0x52,0x50,0x47,0x3a,0x3a,0x4d,0x6f,0x76,0x65,0x52,0x6f,0x75,0x74,0x65,0x09,0x3a,0x0c,0x40,0x72,0x65,0x70,0x65,0x61,0x74,0x46,0x3a,0x0f,0x40,0x73,0x6b,0x69,0x70,0x70,0x61,0x62,0x6c,0x65,0x46,0x3a,0x0a,0x40,0x77,0x61,0x69,0x74,0x54,0x3a,0x0a,0x40,0x6c,0x69,0x73,0x74,0x5b,0x09,0x6f,0x3a,0x15,0x52,0x50,0x47,0x3a,0x3a,0x4d,0x6f,0x76,0x65,0x43,0x6f,0x6d,0x6d,0x61,0x6e,0x64,0x07,0x3a,0x0a,0x40,0x63,0x6f,0x64,0x65,0x69,0x2a,0x3a,0x10,0x40,0x70,0x61,0x72,0x61,0x6d,0x65,0x74,0x65,0x72,0x73,0x5b,0x00,0x6f,0x3b,0x0a,0x07,0x3b,0x0b,0x69,0x0f,0x3b,0x0c,0x5b,0x00,0x6f,0x3b,0x0a,0x07,0x3b,0x0b,0x69,0x2c,0x3b,0x0c,0x5b,0x00,0x6f,0x3b,0x0a,0x07,0x3b,0x0b,0x69,0x00,0x3b,0x0c,0x5b,0x00))
  355("add_actor_ex(13)")
  249(bytes(0x04,0x08,0x6f,0x3a,0x0c,0x52,0x50,0x47,0x3a,0x3a,0x4d,0x45,0x08,0x3a,0x0a,0x40,0x6e,0x61,0x6d,0x65,0x49,0x22,0x0c,0x66,0x61,0x6e,0x66,0x61,0x6c,0x65,0x06,0x3a,0x06,0x45,0x54,0x3a,0x0b,0x40,0x70,0x69,0x74,0x63,0x68,0x69,0x69,0x3a,0x0c,0x40,0x76,0x6f,0x6c,0x75,0x6d,0x65,0x69,0x69))
  ShowMessageFace("",0,0,2,45)
  ShowMessage("ノームが仲間に加わった！")
  If(4,62,0)
   ShowMessageFace("gob_fc1",0,0,2,46)
   ShowMessage("\\n<Gob>わーい、新しい仲間だー！　よろしくね！")
   If(4,79,0)
    ShowMessageFace("nuruko_fc1",0,0,2,47)
    ShowMessage("\\n<Nuruko>きゅきゅきゅー！")
    0()
   EndIf()
   ShowMessageFace("gnome_fc1",0,0,2,48)
   ShowMessage("\\n<Gnome>……………………")
   0()
  EndIf()
  ChangeVariable(1001,1001,0,0,18)
  If(0,4,0)
   ShowMessageFace("alice_fc5",1,0,2,49)
   ShowMessage("\\n<Alice>これで、ノームとの契約は終わった。 サバサ地域での用事は、タルタロス探索を残すだけだな。")
   ShowMessageFace("alice_fc5",1,0,2,50)
   ShowMessage("\\n<Alice>タルタロスの場所は、サルーンの東…… 何本か橋を渡った場所だ。")
   0()
  EndIf()
  If(0,5,0)
   ShowMessageFace("iriasu_fc4",0,0,2,51)
   ShowMessage("\\n<Ilias>これで、ノームを僕にしました。 サバサ地域での用事は、タルタロス探索を残すだけですね。")
   ShowMessageFace("iriasu_fc4",0,0,2,52)
   ShowMessage("\\n<Ilias>タルタロスの場所は、サルーンの東…… 何本か橋を渡った場所です。")
   0()
  EndIf()
  If(0,6,0)
   ShowMessageFace("sonia_fc1",0,0,2,53)
   ShowMessage("\\n<Sonya>色々あったけど、これでサバサも最後かぁ…… それじゃあ、気合い入れていこー！")
   0()
  Else()
   ShowMessageFace("ruka_fc1",0,0,2,54)
   ShowMessage("\\n<Luka>これでサバサも最後か…… さあ、次はいよいよタルタロスだ！")
   0()
  EndIf()
  If(4,129,0)
   ShowMessageFace("brunhild_fc1",0,0,2,55)
   ShowMessage("\\n<Hild>タルタロスをやっつければいいの……？ ヒルデ、がんばる……")
   0()
  EndIf()
  ShowMessageFace("",0,0,2,56)
  ShowMessage("大地に開いた謎の大穴、タルタロス。 そして、その向こうに存在する並行世界――")
  ShowMessageFace("",0,0,2,57)
  ShowMessage("次は、どんな異世界が待っているのだろうか。 こうして僕達は、サルーンの東へと向かうのだった――")
  355("gain_medal(29)")
  EndEventProcessing()
  0()
 PAGE   2
  // condition: variable 1001 >= 18
  0()



EVENT   7
 PAGE   1
  // condition: variable 1001 >= 15
  If(0,4,0)
   ShowMessageFace("alice_fc5",0,0,2,1)
   ShowMessage("\\n<Alice>……妙だな、ノームの姿はどこにもないようだ。 警戒して隠れているのか？")
   ShowMessageFace("alice_fc5",0,0,2,2)
   ShowMessage("\\n<Alice>他の精霊がいれば、釣られて姿を見せるかもしれんな。 順番を間違えたのではないか……？")
   0()
  EndIf()
  If(0,5,0)
   ShowMessageFace("iriasu_fc4",2,0,2,3)
   ShowMessage("\\n<Ilias>……妙ですね、ノームの姿がどこにもないようです。 警戒して隠れているのでしょうか……")
   ShowMessageFace("iriasu_fc4",2,0,2,4)
   ShowMessage("\\n<Ilias>他の精霊がいれば、釣られて姿を見せるかもしれません。 順番を間違えたのではないでしょうか……？")
   0()
  EndIf()
  TemporaryRemoveEvent()
  EndEventProcessing()
  0()
 PAGE   2
  // condition: variable 1001 >= 17
  0()



EVENT   12
 PAGE   1
  ChangeSelfSwitch("A",0)
  ChangeSwitch(31,31,0)
  205(9,bytes(0x04,0x08,0x6f,0x3a,0x13,0x52,0x50,0x47,0x3a,0x3a,0x4d,0x6f,0x76,0x65,0x52,0x6f,0x75,0x74,0x65,0x09,0x3a,0x0c,0x40,0x72,0x65,0x70,0x65,0x61,0x74,0x46,0x3a,0x0f,0x40,0x73,0x6b,0x69,0x70,0x70,0x61,0x62,0x6c,0x65,0x46,0x3a,0x0a,0x40,0x77,0x61,0x69,0x74,0x46,0x3a,0x0a,0x40,0x6c,0x69,0x73,0x74,0x5b,0x14,0x6f,0x3a,0x15,0x52,0x50,0x47,0x3a,0x3a,0x4d,0x6f,0x76,0x65,0x43,0x6f,0x6d,0x6d,0x61,0x6e,0x64,0x07,0x3a,0x0a,0x40,0x63,0x6f,0x64,0x65,0x69,0x2a,0x3a,0x10,0x40,0x70,0x61,0x72,0x61,0x6d,0x65,0x74,0x65,0x72,0x73,0x5b,0x00,0x6f,0x3b,0x0a,0x07,0x3b,0x0b,0x69,0x08,0x3b,0x0c,0x5b,0x00,0x6f,0x3b,0x0a,0x07,0x3b,0x0b,0x69,0x08,0x3b,0x0c,0x5b,0x00,0x6f,0x3b,0x0a,0x07,0x3b,0x0b,0x69,0x08,0x3b,0x0c,0x5b,0x00,0x6f,0x3b,0x0a,0x07,0x3b,0x0b,0x69,0x08,0x3b,0x0c,0x5b,0x00,0x6f,0x3b,0x0a,0x07,0x3b,0x0b,0x69,0x08,0x3b,0x0c,0x5b,0x00,0x6f,0x3b,0x0a,0x07,0x3b,0x0b,0x69,0x08,0x3b,0x0c,0x5b,0x00,0x6f,0x3b,0x0a,0x07,0x3b,0x0b,0x69,0x08,0x3b,0x0c,0x5b,0x00,0x6f,0x3b,0x0a,0x07,0x3b,0x0b,0x69,0x08,0x3b,0x0c,0x5b,0x00,0x6f,0x3b,0x0a,0x07,0x3b,0x0b,0x69,0x08,0x3b,0x0c,0x5b,0x00,0x6f,0x3b,0x0a,0x07,0x3b,0x0b,0x69,0x08,0x3b,0x0c,0x5b,0x00,0x6f,0x3b,0x0a,0x07,0x3b,0x0b,0x69,0x08,0x3b,0x0c,0x5b,0x00,0x6f,0x3b,0x0a,0x07,0x3b,0x0b,0x69,0x08,0x3b,0x0c,0x5b,0x00,0x6f,0x3b,0x0a,0x07,0x3b,0x0b,0x69,0x2c,0x3b,0x0c,0x5b,0x00,0x6f,0x3b,0x0a,0x07,0x3b,0x0b,0x69,0x00,0x3b,0x0c,0x5b,0x00))
  205(10,bytes(0x04,0x08,0x6f,0x3a,0x13,0x52,0x50,0x47,0x3a,0x3a,0x4d,0x6f,0x76,0x65,0x52,0x6f,0x75,0x74,0x65,0x09,0x3a,0x0c,0x40,0x72,0x65,0x70,0x65,0x61,0x74,0x46,0x3a,0x0f,0x40,0x73,0x6b,0x69,0x70,0x70,0x61,0x62,0x6c,0x65,0x46,0x3a,0x0a,0x40,0x77,0x61,0x69,0x74,0x46,0x3a,0x0a,0x40,0x6c,0x69,0x73,0x74,0x5b,0x14,0x6f,0x3a,0x15,0x52,0x50,0x47,0x3a,0x3a,0x4d,0x6f,0x76,0x65,0x43,0x6f,0x6d,0x6d,0x61,0x6e,0x64,0x07,0x3a,0x0a,0x40,0x63,0x6f,0x64,0x65,0x69,0x2a,0x3a,0x10,0x40,0x70,0x61,0x72,0x61,0x6d,0x65,0x74,0x65,0x72,0x73,0x5b,0x00,0x6f,0x3b,0x0a,0x07,0x3b,0x0b,0x69,0x08,0x3b,0x0c,0x5b,0x00,0x6f,0x3b,0x0a,0x07,0x3b,0x0b,0x69,0x08,0x3b,0x0c,0x5b,0x00,0x6f,0x3b,0x0a,0x07,0x3b,0x0b,0x69,0x08,0x3b,0x0c,0x5b,0x00,0x6f,0x3b,0x0a,0x07,0x3b,0x0b,0x69,0x08,0x3b,0x0c,0x5b,0x00,0x6f,0x3b,0x0a,0x07,0x3b,0x0b,0x69,0x08,0x3b,0x0c,0x5b,0x00,0x6f,0x3b,0x0a,0x07,0x3b,0x0b,0x69,0x08,0x3b,0x0c,0x5b,0x00,0x6f,0x3b,0x0a,0x07,0x3b,0x0b,0x69,0x08,0x3b,0x0c,0x5b,0x00,0x6f,0x3b,0x0a,0x07,0x3b,0x0b,0x69,0x08,0x3b,0x0c,0x5b,0x00,0x6f,0x3b,0x0a,0x07,0x3b,0x0b,0x69,0x08,0x3b,0x0c,0x5b,0x00,0x6f,0x3b,0x0a,0x07,0x3b,0x0b,0x69,0x08,0x3b,0x0c,0x5b,0x00,0x6f,0x3b,0x0a,0x07,0x3b,0x0b,0x69,0x08,0x3b,0x0c,0x5b,0x00,0x6f,0x3b,0x0a,0x07,0x3b,0x0b,0x69,0x08,0x3b,0x0c,0x5b,0x00,0x6f,0x3b,0x0a,0x07,0x3b,0x0b,0x69,0x2c,0x3b,0x0c,0x5b,0x00,0x6f,0x3b,0x0a,0x07,0x3b,0x0b,0x69,0x00,0x3b,0x0c,0x5b,0x00))
  205(11,bytes(0x04,0x08,0x6f,0x3a,0x13,0x52,0x50,0x47,0x3a,0x3a,0x4d,0x6f,0x76,0x65,0x52,0x6f,0x75,0x74,0x65,0x09,0x3a,0x0c,0x40,0x72,0x65,0x70,0x65,0x61,0x74,0x46,0x3a,0x0f,0x40,0x73,0x6b,0x69,0x70,0x70,0x61,0x62,0x6c,0x65,0x46,0x3a,0x0a,0x40,0x77,0x61,0x69,0x74,0x54,0x3a,0x0a,0x40,0x6c,0x69,0x73,0x74,0x5b,0x14,0x6f,0x3a,0x15,0x52,0x50,0x47,0x3a,0x3a,0x4d,0x6f,0x76,0x65,0x43,0x6f,0x6d,0x6d,0x61,0x6e,0x64,0x07,0x3a,0x0a,0x40,0x63,0x6f,0x64,0x65,0x69,0x2a,0x3a,0x10,0x40,0x70,0x61,0x72,0x61,0x6d,0x65,0x74,0x65,0x72,0x73,0x5b,0x00,0x6f,0x3b,0x0a,0x07,0x3b,0x0b,0x69,0x08,0x3b,0x0c,0x5b,0x00,0x6f,0x3b,0x0a,0x07,0x3b,0x0b,0x69,0x08,0x3b,0x0c,0x5b,0x00,0x6f,0x3b,0x0a,0x07,0x3b,0x0b,0x69,0x08,0x3b,0x0c,0x5b,0x00,0x6f,0x3b,0x0a,0x07,0x3b,0x0b,0x69,0x08,0x3b,0x0c,0x5b,0x00,0x6f,0x3b,0x0a,0x07,0x3b,0x0b,0x69,0x08,0x3b,0x0c,0x5b,0x00,0x6f,0x3b,0x0a,0x07,0x3b,0x0b,0x69,0x08,0x3b,0x0c,0x5b,0x00,0x6f,0x3b,0x0a,0x07,0x3b,0x0b,0x69,0x08,0x3b,0x0c,0x5b,0x00,0x6f,0x3b,0x0a,0x07,0x3b,0x0b,0x69,0x08,0x3b,0x0c,0x5b,0x00,0x6f,0x3b,0x0a,0x07,0x3b,0x0b,0x69,0x08,0x3b,0x0c,0x5b,0x00,0x6f,0x3b,0x0a,0x07,0x3b,0x0b,0x69,0x08,0x3b,0x0c,0x5b,0x00,0x6f,0x3b,0x0a,0x07,0x3b,0x0b,0x69,0x08,0x3b,0x0c,0x5b,0x00,0x6f,0x3b,0x0a,0x07,0x3b,0x0b,0x69,0x08,0x3b,0x0c,0x5b,0x00,0x6f,0x3b,0x0a,0x07,0x3b,0x0b,0x69,0x2c,0x3b,0x0c,0x5b,0x00,0x6f,0x3b,0x0a,0x07,0x3b,0x0b,0x69,0x00,0x3b,0x0c,0x5b,0x00))
  ChangeSwitch(31,31,1)
  0()
 PAGE   2
  // condition: self-switch A is ON
  0()
 PAGE   3
  // condition: variable 1001 >= 18
  0()



EVENT   13
 PAGE   1
  ShowMessageFace("",0,0,2,1)
  ShowMessage("癒しの壺がある……")
  250(bytes(0x04,0x08,0x6f,0x3a,0x0c,0x52,0x50,0x47,0x3a,0x3a,0x53,0x45,0x08,0x3a,0x0a,0x40,0x6e,0x61,0x6d,0x65,0x49,0x22,0x0a,0x48,0x65,0x61,0x6c,0x37,0x06,0x3a,0x06,0x45,0x54,0x3a,0x0b,0x40,0x70,0x69,0x74,0x63,0x68,0x69,0x69,0x3a,0x0c,0x40,0x76,0x6f,0x6c,0x75,0x6d,0x65,0x69,0x55))
  224(bytes(0x04,0x08,0x75,0x3a,0x0a,0x43,0x6f,0x6c,0x6f,0x72,0x25,0x00,0x00,0x00,0x00,0x00,0xe0,0x6f,0x40,0x00,0x00,0x00,0x00,0x00,0xe0,0x6f,0x40,0x00,0x00,0x00,0x00,0x00,0xe0,0x6f,0x40,0x00,0x00,0x00,0x00,0x00,0xe0,0x6f,0x40),30,true)
  314(0,0)
  ShowMessageFace("",0,0,2,2)
  ShowMessage("The party's HP and MP have been fully recovered!")
  0()



EVENT   10
 PAGE   1
  // condition: switch 31 is ON
  0()



EVENT   9
 PAGE   1
  // condition: switch 31 is ON
  0()



EVENT   11
 PAGE   1
  // condition: switch 31 is ON
  0()



EVENT   14
 PAGE   1
  250(bytes(0x04,0x08,0x6f,0x3a,0x0c,0x52,0x50,0x47,0x3a,0x3a,0x53,0x45,0x08,0x3a,0x0a,0x40,0x6e,0x61,0x6d,0x65,0x49,0x22,0x0a,0x49,0x74,0x65,0x6d,0x31,0x06,0x3a,0x06,0x45,0x54,0x3a,0x0b,0x40,0x70,0x69,0x74,0x63,0x68,0x69,0x69,0x3a,0x0c,0x40,0x76,0x6f,0x6c,0x75,0x6d,0x65,0x69,0x55))
  ChangeSelfSwitch("A",0)
  ChangeInventory_Item(21,0,0,1)
  0()
 PAGE   2
  // condition: self-switch A is ON
  0()



EVENT   16
 PAGE   1
  ShowMessageFace("doro_fc1",2,0,2,1)
  ShowMessage("\\n<Mud Doll>……………………")
  355("actor_label_jump")
  EndEventProcessing()
  DefineLabel("137")
  ShowMessageFace("braunys_fc1",6,0,2,2)
  ShowMessage("\\n<Love & Lamb>泥人形ちゃん、焚き火の準備？")
  ShowMessageFace("doro_fc1",2,0,2,3)
  ShowMessage("\\n<Mud Doll>……………………")
  ShowMessageFace("",0,0,2,4)
  ShowMessage("泥人形はこくこくと頷いている……")
  EndEventProcessing()
  0()



EVENT   17
 PAGE   1
  ShowMessageFace("doro_fc1",2,0,2,1)
  ShowMessage("\\n<Mud Doll>……………………")
  ShowMessageFace("",0,0,2,2)
  ShowMessage("泥人形は穴を掘っている……")
  355("actor_label_jump")
  EndEventProcessing()
  DefineLabel("59")
  ShowMessageFace("mdg_fc1",0,0,2,3)
  ShowMessage("\\n<Ragora>何してるのかしら？ 埋まりたい訳じゃないわよね……")
  EndEventProcessing()
  DefineLabel("61")
  ShowMessageFace("mimizu_fc1",1,0,2,4)
  ShowMessage("\\n<Mimi>穴掘りね？　私も手伝うわ……")
  ShowMessageFace("",0,0,2,5)
  ShowMessage("ミミーと泥人形は穴を掘っている……")
  EndEventProcessing()
  0()



EVENT   18
 PAGE   1
  // condition: switch 2114 is ON
  ChangeSelfSwitch("A",0)
  ChangeSwitch(35,35,1)
  222()
  Wait(15)
  ShowMessageFace("gnome_fc1",1,0,2,1)
  ShowMessage("\\n<Gnome>……………………")
  ShowMessageFace("sonia_fc2",2,0,2,2)
  ShowMessage("\\n<Sonya>そう……辛かったのね、ノームちゃん。")
  ShowMessageFace("nuruko_fc1",2,0,2,3)
  ShowMessage("\\n<Nuruko>……………………")
  ShowMessageFace("nuruko_fc1",0,0,2,4)
  ShowMessage("\\n<Nuruko>きゅっ！")
  ShowMessageFace("",0,0,2,5)
  ShowMessage("ヌルコはおやつのチョココロネを半分こし、ノームに差し出した！")
  ShowMessageFace("gnome_fc1",0,0,2,6)
  ShowMessage("\\n<Gnome>…………？")
  ShowMessageFace("nuruko_fc1",0,0,2,7)
  ShowMessage("\\n<Nuruko>きゅきゅきゅ～きゅっ！")
  ShowMessageFace("sonia_fc1",4,0,2,8)
  ShowMessage("\\n<Sonya>友達になってあげる、もう寂しくない…… ……だって。")
  ShowMessageFace("gnome_fc1",0,0,2,9)
  ShowMessage("\\n<Gnome>……………………")
  ShowMessageFace("sylph_fc1",1,0,2,10)
  ShowMessage("\\n<Sylph>ありがとう、とっても嬉しい……だって。")
  ShowMessageFace("nuruko_fc1",0,0,2,11)
  ShowMessage("\\n<Nuruko>きゅきゅ！")
  ShowMessageFace("gnome_fc1",0,0,2,12)
  ShowMessage("\\n<Gnome>……………………")
  ShowMessageFace("",0,0,2,13)
  ShowMessage("ノームとヌルコは、チョココロネを分け合って食べた…… 二人は友達になった！")
  ShowMessageFace("nuruko_fc1",0,0,2,14)
  ShowMessage("\\n<Nuruko>きゅきゅきゅ～！")
  ShowMessageFace("sonia_fc1",0,0,2,15)
  ShowMessage("\\n<Sonya>さっそく、木登りして遊ぼう……だって。")
  ShowMessageFace("gnome_fc1",0,0,2,16)
  ShowMessage("\\n<Gnome>……………………")
  ShowMessageFace("sylph_fc1",1,0,2,17)
  ShowMessage("\\n<Sylph>木登りなら負けない、競争しよう……だって。")
  ShowMessageFace("ruka_fc1",0,0,2,18)
  ShowMessage("\\n<Luka>（友達なのに通訳がいるなんて……）")
  355("gain_medal(2011)")
  0()
 PAGE   2
  // condition: self-switch A is ON
  0()



EVENT   19
 PAGE   1
  If(0,2114,1)
   If(0,6,0)
    ShowMessageFace("sonia_fc2",2,0,2,1)
    ShowMessage("\\n<Sonya>こんなところに、なんでお墓が……？")
    0()
   Else()
    ShowMessageFace("ruka_fc1",0,0,2,2)
    ShowMessage("\\n<Luka>なんで、こんなところにお墓が？")
    0()
   EndIf()
   If(4,12,0)
    ShowMessageFace("sylph_fc1",1,0,2,3)
    ShowMessage("\\n<Sylph>ノームちゃんなら知ってるはずなんだけど……")
    0()
   EndIf()
   If(0,6,0)
    If(0,1013,0)
     If(0,1013,0)
      If(0,1079,0)
       ChangeSwitch(2114,2114,0)
       ShowMessageFace("nuruko_fc1",0,0,2,4)
       ShowMessage("\\n<Nuruko>……きゅ？")
       ShowMessageFace("gnome_fc1",0,0,2,5)
       ShowMessage("\\n<Gnome>……………………")
       ShowMessageFace("sylph_fc1",1,0,2,6)
       ShowMessage("\\n<Sylph>えっと、あたしが通訳するね。 ずっと昔から、ノームちゃんはここで暮らしてたんだけど……")
       221()
       Wait(60)
       211(0)
       241(bytes(0x04,0x08,0x6f,0x3a,0x0d,0x52,0x50,0x47,0x3a,0x3a,0x42,0x47,0x4d,0x08,0x3a,0x0a,0x40,0x6e,0x61,0x6d,0x65,0x49,0x22,0x14,0x73,0x63,0x65,0x6e,0x65,0x5f,0x6b,0x61,0x6e,0x61,0x73,0x69,0x6d,0x69,0x33,0x06,0x3a,0x06,0x45,0x54,0x3a,0x0c,0x40,0x76,0x6f,0x6c,0x75,0x6d,0x65,0x69,0x69,0x3a,0x0b,0x40,0x70,0x69,0x74,0x63,0x68,0x69,0x69))
       ChangeSwitch(31,31,0)
       ChangeSwitch(32,32,1)
       ChangeSwitch(33,33,1)
       ChangeSwitch(34,34,1)
       ChangeSwitch(35,35,1)
       TeleportPlayer(0,635,1,0,0,0)
       0()
      EndIf()
      0()
     EndIf()
     0()
    EndIf()
    0()
   EndIf()
   EndEventProcessing()
   0()
  Else()
   ShowMessageFace("gnome_fc1",1,0,2,7)
   ShowMessage("\\n<Gnome>……………………")
   EndEventProcessing()
   0()
  EndIf()
  0()



EVENT   15
 PAGE   1
  // condition: switch 1013 is ON
  // condition: variable 1047 >= 1
  // condition: party contains actor #167
  ChangeVariable(1047,1047,0,0,2)
  ShowMessageFace("lusia_fc1",0,0,2,1)
  ShowMessage("\\n<Lucia>ここは、土の精霊の力が集まる地ですね。 なるほど、自然エネルギーの循環が感じ取れます。")
  ShowMessageFace("lusia_fc1",0,0,2,2)
  ShowMessage("\\n<Lucia>少し、時間を頂いて良いでしょうか。 精霊に関する観測データを集めたいもので……")
  If(0,6,0)
   ShowMessageFace("sonia_fc2",2,0,2,3)
   ShowMessage("\\n<Sonya>また、あの計測マキナを使うの……？")
   0()
  Else()
   ShowMessageFace("ruka_fc1",0,0,2,4)
   ShowMessage("\\n<Luka>また、あの計測マキナを使う気……？")
   0()
  EndIf()
  ShowMessageFace("lusia_fc1",0,0,2,5)
  ShowMessage("\\n<Lucia>大丈夫ですよ……それでは計測を開始します。")
  ShowMessageFace("gnome_fc1",0,0,2,6)
  ShowMessage("\\n<Gnome>……………………")
  ShowMessageFace("lusia_fc1",0,0,2,7)
  ShowMessage("\\n<Lucia>おや、さっそく反応がありましたね。 こちらからも干渉波を送りましょう……")
  ShowMessageFace("lusia_fc1",0,0,2,8)
  ShowMessage("\\n<Lucia>干渉波を高めていきます。 2倍……4倍……8倍……")
  ShowMessageFace("gnome_fc1",0,0,2,9)
  ShowMessage("\\n<Gnome>……………………")
  ShowMessageFace("gnome_fc1",0,0,2,10)
  ShowMessage("\\n<Gnome>……………………")
  ShowMessageFace("gnome_fc1",1,0,2,11)
  ShowMessage("\\n<Gnome>……………………")
  250(bytes(0x04,0x08,0x6f,0x3a,0x0c,0x52,0x50,0x47,0x3a,0x3a,0x53,0x45,0x08,0x3a,0x0a,0x40,0x6e,0x61,0x6d,0x65,0x49,0x22,0x0f,0x6d,0x6f,0x6e,0x5f,0x65,0x61,0x72,0x74,0x68,0x31,0x06,0x3a,0x06,0x45,0x54,0x3a,0x0b,0x40,0x70,0x69,0x74,0x63,0x68,0x69,0x69,0x3a,0x0c,0x40,0x76,0x6f,0x6c,0x75,0x6d,0x65,0x69,0x69))
  225(7,7,180,false)
  If(0,6,0)
   ShowMessageFace("sonia_fc3",2,0,2,12)
   ShowMessage("\\n<Sonya>ちょっと！　何よこれ！")
   0()
  Else()
   ShowMessageFace("ruka_fc1",0,0,2,13)
   ShowMessage("\\n<Luka>わぁっ、なんだ！？")
   0()
  EndIf()
  241(bytes(0x04,0x08,0x6f,0x3a,0x0d,0x52,0x50,0x47,0x3a,0x3a,0x42,0x47,0x4d,0x08,0x3a,0x0a,0x40,0x6e,0x61,0x6d,0x65,0x49,0x22,0x10,0x73,0x63,0x65,0x6e,0x65,0x5f,0x63,0x6f,0x6d,0x69,0x31,0x06,0x3a,0x06,0x45,0x54,0x3a,0x0c,0x40,0x76,0x6f,0x6c,0x75,0x6d,0x65,0x69,0x69,0x3a,0x0b,0x40,0x70,0x69,0x74,0x63,0x68,0x69,0x69))
  ShowMessageFace("lusia_fc1",2,0,2,14)
  ShowMessage("\\n<Lucia>お、おかしいですね…… こんな反応は……")
  ShowMessageFace("gnome_fc1",0,0,2,15)
  ShowMessage("\\n<Gnome>……………………")
  ShowMessageFace("sylph_fc1",7,0,2,16)
  ShowMessage("\\n<Sylph>ぴきぴき……")
  ShowMessageFace("lusia_fc1",0,0,2,17)
  ShowMessage("\\n<Lucia>しかし、大地への大規模干渉を目にした事は収穫でした。 これは、私の魔導研究にも応用できそうです。")
  318(0,167,0,3114)
  250(bytes(0x04,0x08,0x6f,0x3a,0x0c,0x52,0x50,0x47,0x3a,0x3a,0x53,0x45,0x08,0x3a,0x0a,0x40,0x6e,0x61,0x6d,0x65,0x49,0x22,0x0a,0x49,0x74,0x65,0x6d,0x31,0x06,0x3a,0x06,0x45,0x54,0x3a,0x0b,0x40,0x70,0x69,0x74,0x63,0x68,0x69,0x69,0x3a,0x0c,0x40,0x76,0x6f,0x6c,0x75,0x6d,0x65,0x69,0x55))
  ShowMessageFace("",0,0,2,18)
  ShowMessage("ルシアは\\I[300]\\C[1]大地の息吹\\C[0]を修得した！")
  ShowMessageFace("lusia_fc1",2,0,2,19)
  ShowMessage("\\n<Lucia>やはり、精霊にはまだまだ謎が多いですね。 もっと様々なデータを集めなくては……")
  ShowMessageFace("lusia_fc1",0,0,2,20)
  ShowMessage("\\n<Lucia>次は、水の精霊ウンディーネの住処…… ウンディーネの泉に連れて行ってもらえませんか？")
  ShowMessageFace("sylph_fc1",7,0,2,21)
  ShowMessage("\\n<Sylph>らりぱっぱ！")
  If(0,6,0)
   ShowMessageFace("sonia_fc2",2,0,2,22)
   ShowMessage("\\n<Sonya>（シルフちゃんが、だんだんおかしくなっていく……）")
   0()
  Else()
   ShowMessageFace("ruka_fc1",0,0,2,23)
   ShowMessage("\\n<Luka>（シルフがおかしい……）")
   0()
  EndIf()
  241(bytes(0x04,0x08,0x6f,0x3a,0x0d,0x52,0x50,0x47,0x3a,0x3a,0x42,0x47,0x4d,0x08,0x3a,0x0a,0x40,0x6e,0x61,0x6d,0x65,0x49,0x22,0x12,0x64,0x75,0x6e,0x67,0x65,0x6f,0x6e,0x5f,0x73,0x61,0x66,0x61,0x72,0x06,0x3a,0x06,0x45,0x54,0x3a,0x0c,0x40,0x76,0x6f,0x6c,0x75,0x6d,0x65,0x69,0x69,0x3a,0x0b,0x40,0x70,0x69,0x74,0x63,0x68,0x69,0x69))
  EndEventProcessing()
  0()
 PAGE   2
  // condition: variable 1047 >= 2
  0()



EVENT   20
 PAGE   1
  // condition: switch 1013 is ON
  // condition: party contains actor #99
  ChangeSwitch(2142,2142,0)
  ShowMessageFace("namazu_fc1",0,0,2,1)
  ShowMessage("\\n<Gigi>むむっ、土のエネルギーを感じるのう…… ヒゲがぴくぴく震えおるわ。")
  ShowMessageFace("namazu_fc1",0,0,2,2)
  ShowMessage("\\n<Gigi>じゃが儂はナマズのはしくれ。 土の力はすでに使えるからのう……")
  ShowMessageFace("namazu_fc1",0,0,2,3)
  ShowMessage("\\n<Gigi>しかし、エレメンタルとは循環するもの。 土のエネルギーに、少し手を加えてやれば……")
  318(0,99,0,3032)
  250(bytes(0x04,0x08,0x6f,0x3a,0x0c,0x52,0x50,0x47,0x3a,0x3a,0x53,0x45,0x08,0x3a,0x0a,0x40,0x6e,0x61,0x6d,0x65,0x49,0x22,0x0a,0x49,0x74,0x65,0x6d,0x31,0x06,0x3a,0x06,0x45,0x54,0x3a,0x0b,0x40,0x70,0x69,0x74,0x63,0x68,0x69,0x69,0x3a,0x0c,0x40,0x76,0x6f,0x6c,0x75,0x6d,0x65,0x69,0x55))
  ShowMessageFace(binary"",0,0,2,4)
  ShowMessage("ギギは\\I[157]\\C[1]氷柱\\C[0]を修得した！")
  318(0,99,0,3035)
  250(bytes(0x04,0x08,0x6f,0x3a,0x0c,0x52,0x50,0x47,0x3a,0x3a,0x53,0x45,0x08,0x3a,0x0a,0x40,0x6e,0x61,0x6d,0x65,0x49,0x22,0x0a,0x49,0x74,0x65,0x6d,0x31,0x06,0x3a,0x06,0x45,0x54,0x3a,0x0b,0x40,0x70,0x69,0x74,0x63,0x68,0x69,0x69,0x3a,0x0c,0x40,0x76,0x6f,0x6c,0x75,0x6d,0x65,0x69,0x55))
  ShowMessageFace(binary"",0,0,2,5)
  ShowMessage("ギギは\\I[157]\\C[1]稲妻\\C[0]を修得した！")
  ShowMessageFace("namazu_fc1",0,0,2,6)
  ShowMessage("\\n<Gigi>ざっと、こんなものじゃ！ 感心したか？")
  ShowMessageFace("namazu_fc1",0,0,2,7)
  ShowMessage("\\n<Gigi>それでは、行くとしようぞ！")
  EndEventProcessing()
  0()
 PAGE   2
  // condition: switch 2142 is ON
  0()
